[
    {
        "name": "The Privacy Co.",
        "logo": "https://media-exp1.licdn.com/dms/image/C4E0BAQGLIdhNe0xcvQ/company-logo_200_200/0?e=1605744000&v=beta&t=Geesa4wZZ3FC8nEfLD5zNcWeeXJmzpPbhHMHbOD1UvE",
        "website": "https://theprivacy.co",
        "position": "Lead Backend Engineer",
        "start_date": "February, 2020",
        "end_date": "",
        "description": "Lead backend engineer owning the API for an early stage, high-growth privacy and data security startup. Leveraging NodeJS and MongoDB to integrate with various API's and to support iOS app."
    },
    {
        "name": "Iulius",
        "logo": "https://media.licdn.com/dms/image/C560BAQFpblY_epgy-w/company-logo_200_200/0?e=2159024400&v=beta&t=6LfG6rY16qYO_fqFgrBATboJk-UQV_XWiDvVqcQZUPg",
        "website": "https://iulius.io",
        "position": "Founder and CEO",
        "start_date": "February, 2019",
        "end_date": "January, 2020",
        "description": "Leveraging insights and technology from Smop Technologies to build more advanced and capable freelancing platform for later-stage, more developed startups and mid-sized software companies."
    },
    {
        "name": "Terrabl",
        "logo": "https://github.com/terrabl/Website/blob/master/custom_theme/img/logo.png?raw=true",
        "website": "https://terrabl.com",
        "position": "Creator",
        "start_date": "June, 2019",
        "end_date": "January, 2020",
        "description": "Created and running open-source cloud architecture project."
    },
    {
        "name": "Smop Technologies",
        "logo": "https://media-exp1.licdn.com/dms/image/C510BAQHUgljrYD7JIw/company-logo_200_200/0?e=1603929600&v=beta&t=g0y8bi2yV-gv-2TAs9JupT_cIDytzUWaSU61YkvbgJI",
        "website": "https://smop.llc",
        "position": "Founder and CEO",
        "start_date": "July, 2016",
        "end_date": "March, 2019",
        "description": "CEO, lead full-stack developer and creator of a web-based software freelancing marketplace."
    },
    {
        "name": "Very Good Ventures",
        "logo": "https://images.squarespace-cdn.com/content/v1/5a959458b40b9d3fe46fde59/1557248657158-646X2MVNT3QXUGWW3OJA/ke17ZwdGBToddI8pDm48kO2pS9cMHbO4RvHPc8Skf1tZw-zPPgdn4jUwVcJE1ZvWhcwhEtWJXoshNdA9f1qD7SSwGn0TPzISNt3iSJufpcvR7xFZ2oYA-YTitnkXPCuTgiUfhLEJ_Uxi_cK3qclb8w/VGV-unicorn-small.png?format=500w",
        "website": "https://verygood.ventures",
        "position": "Back-End Engineer and Cloud Architect",
        "start_date": "August, 2019",
        "end_date": "January, 2020",
        "description": "Back-end engineer and cloud architect for bleeding-edge Flutter dev shop. Leading development of API's and frameworks for various client-facing and internal projects."
    },
    {
        "name": "Perch Interactive",
        "logo": "https://images.squarespace-cdn.com/content/5975ff8d37c581dd4639b480/1555353972656-K62U0HTFM13L65ZG5X7Z/2.png?content-type=image%2Fpng",
        "website": "https://perchinteractive.com",
        "position": "Full Stack Engineer",
        "start_date": "February, 2019",
        "end_date": "August, 2019",
        "description": "Full-stack software developer specializing in web-development for high-growth startup."
    },
    {
        "name": "MoQuality",
        "logo": "https://pbs.twimg.com/profile_images/840270255951769600/naMK5S0z_400x400.jpg",
        "website": "https://moquality.com",
        "position": "Full-Stack Engineer",
        "start_date": "May, 2018",
        "end_date": "July, 2018",
        "description": "A full-stack engineer working on architecture and development of mostly backend projects and modules. Worked with AWS, Google Cloud, Azure, Python, Java, Selenium, Appium, UIAutomator and other Android-based development and testing tools."
    },
    {
        "name": "Manhattan Associates",
        "logo": "https://media-exp1.licdn.com/dms/image/C4D0BAQGsRyHMo5lPWw/company-logo_200_200/0?e=1600300800&v=beta&t=qFyhFOjyL3mJE9s02UKGbKAbK8bCfmwo7fwzc3i1dRo",
        "website": "https://manh.com",
        "position": "QA Automation Engineering Intern",
        "start_date": "May, 2017",
        "end_date": "July, 2017",
        "description": "Developed proof of concept for automating testing for pre-release Java and AngularJS web-based application using Selenium, Protractor, Java, JavaScript, Typescript, Node.js and Python."
    },
    {
        "name": "Egos Ventures",
        "logo": "https://pbs.twimg.com/profile_images/2254669357/egos_logo_new_400x400.png",
        "website": "https://www.car360.com/",
        "position": "UI Designer and Front-End Developer",
        "start_date": "May, 2016",
        "end_date": "July, 2016",
        "description": "Designed icons, logos and layouts for apps and website. Developed website in agile scrum team."
    },
    {
        "name": "Unilever",
        "logo": "https://upload.wikimedia.org/wikipedia/en/thumb/e/e4/Unilever.svg/240px-Unilever.svg.png",
        "website": "https://unilever.com",
        "position": "Design Engineer",
        "start_date": "May, 2015",
        "end_date": "July, 2015",
        "description": "Developed best practice methods (kanban) for cross-functional packaging team. Tested and worked on rapid prototyping for several bottle designs for Dove and other brands."
    }
]